guia9/Guia_0906.vcd
$date
	Fri Apr 25 11:55:58 2025
$end
$version
	Icarus Verilog
$end
$timescale
	1s
$end
$scope module Guia0906 $end
$var wire 1 ! clock $end
$upscope $end
$scope module Guia0906 $end
$var wire 1 " p1 $end
$upscope $end
$enddefinitions $end
$comment Show the parameter values. $end
$dumpall
$end
#0
$dumpvars
0"
0!
$end
#12
1!
#24
1"
0!
#28
0"
#36
1!
#48
1"
0!
#52
0"
#60
1!
#72
1"
0!
#76
0"
#84
1!
#96
1"
0!
#100
0"
#108
1!
#120
1"
0!
#124
0"
#132
1!
#144
1"
0!
#148
0"
#156
1!
#168
1"
0!
#172
0"
#180
1!
#192
1"
0!
#196
0"
#204
1!
#216
1"
0!
#220
0"
#228
1!
#240
1"
0!
#244
0"
#252
1!
#264
1"
0!
#268
0"
#276
1!
#288
1"
0!
#292
0"
#300
1!
#312
1"
0!
#316
0"
#324
1!
#336
1"
0!
#340
0"
#348
1!
#360
1"
0!
#364
0"
#372
1!
#384
1"
0!
#388
0"
#396
1!
#408
1"
0!
#412
0"
#420
1!
#432
1"
0!
#436
0"
#444
1!
#456
1"
0!
#460
0"
#468
1!
#480
1"
0!