guia9/Guia_0905.vcd
$date
	Fri Apr 25 11:53:09 2025
$end
$version
	Icarus Verilog
$end
$timescale
	1s
$end
$scope module Guia0905 $end
$var wire 1 ! clock $end
$upscope $end
$scope module Guia0905 $end
$var wire 1 " p2 $end
$upscope $end
$scope module Guia0905 $end
$var wire 1 # p1 $end
$upscope $end
$enddefinitions $end
$comment Show the parameter values. $end
$dumpall
$end
#0
$dumpvars
0#
0"
0!
$end
#12
1#
1"
1!
#15
0#
0"
#18
1#
1"
#21
0#
0"
#24
0!
#36
1#
1"
1!
#39
0#
0"
#42
1#
1"
#45
0#
0"
#48
0!
#60
1#
1"
1!
#63
0#
0"
#66
1#
1"
#69
0#
0"
#72
0!
#84
1#
1"
1!
#87
0#
0"
#90
1#
1"
#93
0#
0"
#96
0!
#108
1#
1"
1!
#111
0#
0"
#114
1#
1"
#117
0#
0"
#120
0!
#132
1#
1"
1!
#135
0#
0"
#138
1#
1"
#141
0#
0"
#144
0!
#156
1#
1"
1!
#159
0#
0"
#162
1#
1"
#165
0#
0"
#168
0!
#180
1#
1"
1!
#183
0#
0"
#186
1#
1"
#189
0#
0"
#192
0!
#204
1#
1"
1!
#207
0#
0"
#210
1#
1"
#213
0#
0"
#216
0!
#228
1#
1"
1!
#231
0#
0"
#234
1#
1"
#237
0#
0"
#240
0!
#252
1#
1"
1!
#255
0#
0"
#258
1#
1"
#261
0#
0"
#264
0!
#276
1#
1"
1!
#279
0#
0"
#282
1#
1"
#285
0#
0"
#288
0!
#300
1#
1"
1!
#303
0#
0"
#306
1#
1"
#309
0#
0"
#312
0!
#324
1#
1"
1!
#327
0#
0"
#330
1#
1"
#333
0#
0"
#336
0!
#348
1#
1"
1!
#351
0#
0"
#354
1#
1"
#357
0#
0"
#360
0!
#372
1#
1"
1!
#375
0#
0"
#378
1#
1"
#381
0#
0"
#384
0!
#396
1#
1"
1!
#399
0#
0"
#402
1#
1"
#405
0#
0"
#408
0!
#420
1#
1"
1!
#423
0#
0"
#426
1#
1"
#429
0#
0"
#432
0!
#444
1#
1"
1!
#447
0#
0"
#450
1#
1"
#453
0#
0"
#456
0!
#468
1#
1"
1!
#471
0#
0"
#474
1#
1"
#477
0#
0"
