guia9/Guia_0903.vcd
$date
	Fri Apr 25 08:06:33 2025
$end
$version
	Icarus Verilog
$end
$timescale
	1s
$end
$scope module Guia0903 $end
$var wire 1 ! clock $end
$upscope $end
$scope module Guia0903 $end
$var wire 1 " p1 $end
$upscope $end
$enddefinitions $end
$comment Show the parameter values. $end
$dumpall
$end
#0
$dumpvars
0"
0!
$end
#12
1!
#24
0!
#36
1!
#48
0!
#60
1"
1!
#72
0!
#84
0"
1!
#96
0!
#108
1!
#120
0!
#132
1"
1!
#144
0!
#156
0"
1!
#168
0!
#180
1!
#192
0!
#204
1"
1!
#216
0!
#228
0"
1!
#240
0!
#252
1!
#264
0!
#276
1"
1!
#288
0!
#300
0"
1!
#312
0!
#324
1!
#336
0!
#348
1"
1!
#360
0!
#372
0"
1!
#384
0!
#396
1!
#408
0!
#420
1"
1!
#432
0!
#444
0"
1!
